{
    "categories": {
    },
    "environments": [
      [
        "Cloudy 8",
        "Cloudy 08",
        "cloudy08",
        0.2,
        1
      ],[
        "Evening 3",
        "Evening 03",
        "evening03",
        2,
        1.5
      ],[
        "Morning 3",
        "Morning 03",
        "morning03",
        3,
        1
      ]
    ],
    "builtin_check": [
      "cloudy08",
      "evening03",
      "morning03"

    ]
}
