{
    "name": "adw_imyxh_dark",
    "variables": {
        "accent_color": "#dc8add",
        "accent_bg_color": "#9141ac",
        "accent_fg_color": "@window_fg_color",
        "destructive_color": "@error_color",
        "destructive_bg_color": "@error_bg_color",
        "destructive_fg_color": "@window_fg_color",
        "success_color": "#8ff0a4",
        "success_bg_color": "#26a269",
        "success_fg_color": "@window_fg_color",
        "warning_color": "#f8e45c",
        "warning_bg_color": "#e5a50a",
        "warning_fg_color": "rgba(0, 0, 0, 0.8)",
        "error_color": "#c01c28",
        "error_bg_color": "#c01c28",
        "error_fg_color": "@window_fg_color",
        "window_bg_color": "#121212",
        "window_fg_color": "#dbdbdb",
        "view_bg_color": "#090909",
        "view_fg_color": "@window_fg_color",
        "headerbar_bg_color": "#202020",
        "headerbar_fg_color": "@window_fg_color",
        "headerbar_border_color": "@window_fg_color",
        "headerbar_backdrop_color": "@window_bg_color",
        "headerbar_shade_color": "rgba(0, 0, 0, 0.36)",
        "card_bg_color": "rgba(255, 255, 255, 0.08)",
        "card_fg_color": "@window_fg_color",
        "card_shade_color": "rgba(0, 0, 0, 0.36)",
        "dialog_bg_color": "#1a1a1a",
        "dialog_fg_color": "@window_fg_color",
        "popover_bg_color": "@dialog_bg_color",
        "popover_fg_color": "@window_fg_color",
        "shade_color": "rgba(0, 0, 0, 0.36)",
        "scrollbar_outline_color": "rgba(0, 0, 0, 0.5)"
    },
    "palette": {
        "blue_": {
            "1": "#99c1f1",
            "2": "#62a0ea",
            "3": "#3584e4",
            "4": "#1c71d8",
            "5": "#1a5fb4"
        },
        "green_": {
            "1": "#8ff0a4",
            "2": "#57e389",
            "3": "#33d17a",
            "4": "#2ec27e",
            "5": "#26a269"
        },
        "yellow_": {
            "1": "#f9f06b",
            "2": "#f8e45c",
            "3": "#f6d32d",
            "4": "#f5c211",
            "5": "#e5a50a"
        },
        "orange_": {
            "1": "#ffbe6f",
            "2": "#ffa348",
            "3": "#ff7800",
            "4": "#e66100",
            "5": "#c64600"
        },
        "red_": {
            "1": "#f66151",
            "2": "#ed333b",
            "3": "#e01b24",
            "4": "#c01c28",
            "5": "#a51d2d"
        },
        "purple_": {
            "1": "#dc8add",
            "2": "#c061cb",
            "3": "#9141ac",
            "4": "#813d9c",
            "5": "#613583"
        },
        "brown_": {
            "1": "#cdab8f",
            "2": "#b5835a",
            "3": "#986a44",
            "4": "#865e3c",
            "5": "#63452c"
        },
        "light_": {
            "1": "#ffffff",
            "2": "#f5f5f5",
            "3": "#dbdbdb",
            "4": "#c0c0c0",
            "5": "#999999"
        },
        "dark_": {
            "1": "#777777",
            "2": "#606060",
            "3": "#3a3a3a",
            "4": "#242424",
            "5": "#000000"
        }
    },
    "custom_css": {
        "gtk4": "",
        "gtk3": ""
    },
    "plugins": {}
}
